<svg xmlns="http://www.w3.org/2000/svg" width="16" height="16" version="1.1">
 <defs>
   <style id="current-color-scheme" type="text/css">
   .ColorScheme-Text { color: #ececec; } .ColorScheme-Highlight { color: #1AD6AB; }
  </style>
  <linearGradient id="arrongin" x1="0%" x2="0%" y1="0%" y2="100%">
   <stop offset="0%" style="stop-color: #dd9b44; stop-opacity: 1"/>
   <stop offset="100%" style="stop-color: #ad6c16; stop-opacity: 1"/>
  </linearGradient>
  <linearGradient id="aurora" x1="0%" x2="0%" y1="0%" y2="100%">
   <stop offset="0%" style="stop-color: #09D4DF; stop-opacity: 1"/>
   <stop offset="100%" style="stop-color: #9269F4; stop-opacity: 1"/>
  </linearGradient>
  <linearGradient id="cyberneon" x1="0%" x2="0%" y1="0%" y2="100%">
    <stop offset="0" style="stop-color: #0abdc6; stop-opacity: 1"/>
    <stop offset="1" style="stop-color: #ea00d9; stop-opacity: 1"/>
  </linearGradient>
  <linearGradient id="fitdance" x1="0%" x2="0%" y1="0%" y2="100%">
   <stop offset="0%" style="stop-color: #1AD6AB; stop-opacity: 1"/>
   <stop offset="100%" style="stop-color: #329DB6; stop-opacity: 1"/>
  </linearGradient>
  <linearGradient id="oomox" x1="0%" x2="0%" y1="0%" y2="100%">
   <stop offset="0%" style="stop-color: #efefe7; stop-opacity: 1"/>
   <stop offset="100%" style="stop-color: #8f8f8b; stop-opacity: 1"/>
  </linearGradient>
  <linearGradient id="rainblue" x1="0%" x2="0%" y1="0%" y2="100%">
   <stop offset="0%" style="stop-color: #00F260; stop-opacity: 1"/>
   <stop offset="100%" style="stop-color: #0575E6; stop-opacity: 1"/>
  </linearGradient>
  <linearGradient id="sunrise" x1="0%" x2="0%" y1="0%" y2="100%">
   <stop offset="0%" style="stop-color: #FF8501; stop-opacity: 1"/>
   <stop offset="100%" style="stop-color: #FFCB01; stop-opacity: 1"/>
  </linearGradient>
  <linearGradient id="telinkrin" x1="0%" x2="0%" y1="0%" y2="100%">
   <stop offset="0%" style="stop-color: #b2ced6; stop-opacity: 1"/>
   <stop offset="100%" style="stop-color: #6da5b7; stop-opacity: 1"/>
  </linearGradient>
  <linearGradient id="60spsycho" x1="0%" x2="0%" y1="0%" y2="100%">
   <stop offset="0%" style="stop-color: #df5940; stop-opacity: 1"/>
   <stop offset="25%" style="stop-color: #d8d15f; stop-opacity: 1"/>
   <stop offset="50%" style="stop-color: #e9882a; stop-opacity: 1"/>
   <stop offset="100%" style="stop-color: #279362; stop-opacity: 1"/>
  </linearGradient>
  <linearGradient id="90ssummer" x1="0%" x2="0%" y1="0%" y2="100%">
   <stop offset="0%" style="stop-color: #f618c7; stop-opacity: 1"/>
   <stop offset="20%" style="stop-color: #94ffab; stop-opacity: 1"/>
   <stop offset="50%" style="stop-color: #fbfd54; stop-opacity: 1"/>
   <stop offset="100%" style="stop-color: #0f83ae; stop-opacity: 1"/>
  </linearGradient>
 </defs>
  <path fill="currentColor" class="ColorScheme-Text" fill-rule="evenodd" d="M 8 0 L 8 1.231 L 9.231 1.231 L 9.231 0 L 8 0 L 8 0 Z M 8 1.231 L 6.769 1.231 L 6.769 2.462 L 8 2.462 L 8 1.231 L 8 1.231 Z M 8 2.462 L 8 3.692 L 9.231 3.692 L 9.231 2.462 L 8 2.462 L 8 2.462 Z M 8 3.692 L 6.769 3.692 L 6.769 4.923 L 8 4.923 L 8 3.692 L 8 3.692 Z M 8 4.923 L 8 6.154 C 8.679 6.154 9.231 5.538 9.231 4.923 L 8 4.923 L 8 4.923 Z M 8 7.385 C 8.679 7.385 9.231 7.877 9.231 8.615 C 9.231 9.231 8.679 9.846 8 9.846 C 7.321 9.846 6.769 9.231 6.769 8.615 C 6.769 7.877 7.321 7.385 8 7.385 L 8 7.385 Z M 8 11.077 C 8.679 11.077 9.231 11.569 9.231 12.308 L 9.231 13.538 C 9.231 14.154 8.679 14.769 8 14.769 C 7.321 14.769 6.769 14.154 6.769 13.538 L 6.769 12.308 C 6.769 11.569 7.321 11.077 8 11.077 L 8 11.077 Z M 8 6.154 L 8 6.154 C 6.64 6.154 5.538 7.262 5.538 8.615 L 5.538 13.538 C 5.538 14.892 6.64 16 8 16 C 9.36 16 10.462 14.892 10.462 13.538 L 10.462 8.615 C 10.462 7.262 9.36 6.154 8 6.154 L 8 6.154 Z"/>
</svg>
