<svg xmlns="http://www.w3.org/2000/svg" width="16" height="16" version="1.1">
 <defs>
   <style id="current-color-scheme" type="text/css">
   .ColorScheme-Text { color: #ececec; } .ColorScheme-Highlight { color: #5294e2; }
  </style>
  <linearGradient id="arrongin" x1="0%" x2="0%" y1="0%" y2="100%">
   <stop offset="0%" style="stop-color: #dd9b44; stop-opacity: 1"/>
   <stop offset="100%" style="stop-color: #ad6c16; stop-opacity: 1"/>
  </linearGradient>
  <linearGradient id="aurora" x1="0%" x2="0%" y1="0%" y2="100%">
   <stop offset="0%" style="stop-color: #09D4DF; stop-opacity: 1"/>
   <stop offset="100%" style="stop-color: #9269F4; stop-opacity: 1"/>
  </linearGradient>
  <linearGradient id="cyberneon" x1="0%" x2="0%" y1="0%" y2="100%">
    <stop offset="0" style="stop-color: #0abdc6; stop-opacity: 1"/>
    <stop offset="1" style="stop-color: #ea00d9; stop-opacity: 1"/>
  </linearGradient>
  <linearGradient id="fitdance" x1="0%" x2="0%" y1="0%" y2="100%">
   <stop offset="0%" style="stop-color: #1AD6AB; stop-opacity: 1"/>
   <stop offset="100%" style="stop-color: #329DB6; stop-opacity: 1"/>
  </linearGradient>
  <linearGradient id="oomox" x1="0%" x2="0%" y1="0%" y2="100%">
   <stop offset="0%" style="stop-color: #efefe7; stop-opacity: 1"/>
   <stop offset="100%" style="stop-color: #8f8f8b; stop-opacity: 1"/>
  </linearGradient>
  <linearGradient id="rainblue" x1="0%" x2="0%" y1="0%" y2="100%">
   <stop offset="0%" style="stop-color: #00F260; stop-opacity: 1"/>
   <stop offset="100%" style="stop-color: #0575E6; stop-opacity: 1"/>
  </linearGradient>
  <linearGradient id="sunrise" x1="0%" x2="0%" y1="0%" y2="100%">
   <stop offset="0%" style="stop-color: #FF8501; stop-opacity: 1"/>
   <stop offset="100%" style="stop-color: #FFCB01; stop-opacity: 1"/>
  </linearGradient>
  <linearGradient id="telinkrin" x1="0%" x2="0%" y1="0%" y2="100%">
   <stop offset="0%" style="stop-color: #b2ced6; stop-opacity: 1"/>
   <stop offset="100%" style="stop-color: #6da5b7; stop-opacity: 1"/>
  </linearGradient>
  <linearGradient id="60spsycho" x1="0%" x2="0%" y1="0%" y2="100%">
   <stop offset="0%" style="stop-color: #df5940; stop-opacity: 1"/>
   <stop offset="25%" style="stop-color: #d8d15f; stop-opacity: 1"/>
   <stop offset="50%" style="stop-color: #e9882a; stop-opacity: 1"/>
   <stop offset="100%" style="stop-color: #279362; stop-opacity: 1"/>
  </linearGradient>
  <linearGradient id="90ssummer" x1="0%" x2="0%" y1="0%" y2="100%">
   <stop offset="0%" style="stop-color: #f618c7; stop-opacity: 1"/>
   <stop offset="20%" style="stop-color: #94ffab; stop-opacity: 1"/>
   <stop offset="50%" style="stop-color: #fbfd54; stop-opacity: 1"/>
   <stop offset="100%" style="stop-color: #0f83ae; stop-opacity: 1"/>
  </linearGradient>
 </defs>
 <path fill="currentColor" class="ColorScheme-Text" fill-rule="evenodd" d="m 8.8717241,11.74069 h -1.942069 v -0.485518 0 q 0,-1.169655 0.4082759,-2.0524134 v 0 0 Q 7.7462068,8.32 8.3310344,7.7793103 v 0 0 Q 8.915862,7.2386207 9.5006896,6.7531034 v 0 0 Q 10.085517,6.2675862 10.493793,5.6275862 v 0 0 q 0.408276,-0.64 0.408276,-1.4344828 v 0 0 q 0,-1.0372413 -0.728276,-1.7213793 v 0 0 Q 9.4455172,1.7875862 8.1655172,1.7875862 v 0 0 q -1.4786207,0 -2.3062069,0.8165517 v 0 0 Q 5.0317241,3.4206897 5.0317241,4.7889655 v 0 H 3.155862 v 0 q 0,-2.1406896 1.3793103,-3.4648276 v 0 0 Q 5.9144827,0 8.1655172,0 v 0 0 q 2.2068968,0 3.4427588,1.1917241 v 0 0 q 1.235862,1.1917242 1.235862,3.0234483 v 0 0 q 0,1.0372414 -0.408276,1.8317242 v 0 0 Q 12.027586,6.8413793 11.442759,7.36 v 0 0 q -0.584828,0.5186207 -1.169656,1.0151724 v 0 0 Q 9.6882758,8.8717241 9.2799999,9.6 v 0 0 q -0.4082758,0.728276 -0.4082758,1.677241 v 0 z m 0.077241,3.806896 v 0 0 Q 8.4965517,16 7.8565517,16 v 0 0 q -0.64,0 -1.0813794,-0.452414 v 0 0 Q 6.333793,15.095172 6.333793,14.49931 v 0 0 q 0,-0.617931 0.4413793,-1.070344 v 0 0 q 0.4413794,-0.452414 1.0813794,-0.452414 v 0 0 q 0.64,0 1.0924137,0.463448 v 0 0 q 0.4524138,0.463448 0.4524138,1.05931 v 0 0 q 0,0.595862 -0.4524141,1.048276 z"/>
</svg>
